% Generated by IEEEtran.bst, version: 1.14 (2015/08/26)
\begin{thebibliography}{1}
\providecommand{\url}[1]{#1}
\csname url@samestyle\endcsname
\providecommand{\newblock}{\relax}
\providecommand{\bibinfo}[2]{#2}
\providecommand{\BIBentrySTDinterwordspacing}{\spaceskip=0pt\relax}
\providecommand{\BIBentryALTinterwordstretchfactor}{4}
\providecommand{\BIBentryALTinterwordspacing}{\spaceskip=\fontdimen2\font plus
\BIBentryALTinterwordstretchfactor\fontdimen3\font minus
  \fontdimen4\font\relax}
\providecommand{\BIBforeignlanguage}[2]{{%
\expandafter\ifx\csname l@#1\endcsname\relax
\typeout{** WARNING: IEEEtran.bst: No hyphenation pattern has been}%
\typeout{** loaded for the language `#1'. Using the pattern for}%
\typeout{** the default language instead.}%
\else
\language=\csname l@#1\endcsname
\fi
#2}}
\providecommand{\BIBdecl}{\relax}
\BIBdecl

\bibitem{mainreview}
V.~A. Crossley, ``A literature review on the design of spherical rolling
  robots,'' Master's thesis, Department of Mechanical Engineering, Carnegie
  Mellon University, Pittsburgh, 2006.

\bibitem{omniwheel}
Y.~L. Karavaev and A.~A. Kilin, ``The dynamics and control of a spherical robot
  with an internal omniwheel platform,'' \emph{Regular and Chaotic Dynamic},
  vol.~20, no.~2, pp. 134--152, 2015.

\bibitem{four_pendulum}
B.~P. DeJong, E.~Karadogan, K.~Yelamarthi, and J.~Hasbany, ``Design and
  analysis of a four-pendulum omnidirectional spherical robot,'' \emph{Journal
  of Intelligent and Robotic Systems}, vol.~86, pp. 3--15, 2017.

\bibitem{underwater}
Z.~Liu, H.~Sun, Y.~Li, Q.~Jia, , and M.~Chu, ``Finite time controller for point
  stabilization of a spherical underwater roving robot,'' \emph{Journal of
  Vibroengineering}, vol.~18, pp. 3719--3733, 2016.

\bibitem{amfibia}
M.~Li, S.~Guo, H.~Hirata, and H.~Ishihara, ``Design and performance evaluation
  of an amphibious spherical robot,'' \emph{Robotics and Autonomous Systems},
  vol.~64, pp. 21--34, 2015.

\bibitem{rollroller}
S.~A. Tafrishi, S.~M. Veres, E.~Esmaeilzadeh, and M.~Svinin, ``Dynamical
  behaviour investigation and analysis of novel mechanism for simulated
  spherical robot named ,,rollroller",'' 2016, under review.

\bibitem{mainsource}
M.~Nagai, ``Control system for a spherical robot,'' Master's thesis, Luea
  University of Technology, Faculty of Electrincs, 2008.

\end{thebibliography}
